{
    "verbose": true,
    "ignore" : [
        "\\.git",
        "node_modules/*",
        "build",
        "ui_src",
        "app/*"
    ],
    "watch"  : [
    	"package.json",
    	"webpack.config.js",
        "webpack.parts.js",
    	".eslintrc.js",
        ".editorconfig",
        ".stylelintrc",
        ".stylelintrc.json",
        ".babelrc"
    ]
}
